[gd_scene format=3 uid="uid://codlu271v3cl7"]

[node name="RichTextLabel" type="RichTextLabel"]
anchors_preset = 15
anchor_right = 1.0
anchor_bottom = 1.0
grow_horizontal = 2
grow_vertical = 2
size_flags_horizontal = 3
size_flags_vertical = 3
bbcode_enabled = true
