[gd_resource type="StandardMaterial3D" format=3 uid="uid://ffhg8p2o4o6s"]

[resource]
resource_name = "Material"
cull_mode = 2
diffuse_mode = 3
specular_mode = 1
albedo_color = Color(0.25, 0.25, 0.25, 1)
