[gd_resource type="FontVariation" load_steps=4 format=3 uid="uid://ctn5nqcp1ylai"]

[ext_resource type="FontFile" uid="uid://bwkvws8130mld" path="res://assets/fonts/IBM-Plex-Sans/IBMPlexSans-Italic.otf" id="1"]
[ext_resource type="FontFile" uid="uid://cygs8hvplsbsc" path="res://assets/fonts/Liberation-Sans/LiberationSans-Italic.ttf" id="2"]
[ext_resource type="FontFile" uid="uid://cor2smbbokbey" path="res://assets/fonts/Amiri/Amiri-Slanted.ttf" id="3"]

[resource]
base_font = ExtResource("1")
fallbacks = Array[Font]([ExtResource("2"), ExtResource("3")])
