[gd_scene load_steps=3 format=3 uid="uid://rprhyk2hitel"]

[ext_resource type="Script" path="res://common/scenes/waypoint/waypoint.gd" id="1"]

[sub_resource type="ImmediateMesh" id="ImmediateMesh_kv4iq"]
resource_local_to_scene = true

[node name="Waypoint" type="Marker3D"]
script = ExtResource("1")

[node name="EditorLines" type="MeshInstance3D" parent="."]
mesh = SubResource("ImmediateMesh_kv4iq")
