[gd_resource type="StandardMaterial3D" load_steps=2 format=3 uid="uid://bcr1ipw8igmf2"]

[ext_resource type="Texture2D" uid="uid://c5ov4if5cxj1t" path="res://plugins/minigames/haunted_dreams/images/Web.png" id="1_1qkvc"]

[resource]
resource_name = "cobwebs"
transparency = 4
cull_mode = 2
albedo_texture = ExtResource("1_1qkvc")
metallic = 1.0
