[gd_resource type="StandardMaterial3D" format=3 uid="uid://bjtjaec7gwdk4"]

[resource]
resource_name = "trashcan"
cull_mode = 2
albedo_color = Color(0.678431, 0.678431, 0.678431, 1)
metallic = 1.0
roughness = 0.0
