[gd_scene load_steps=6 format=3 uid="uid://cokfcoiev4upj"]

[ext_resource type="Script" path="res://plugins/minigames/hurdle/hurdle/hurdle.gd" id="1"]
[ext_resource type="PackedScene" uid="uid://ct5hyvce1gnia" path="res://plugins/minigames/hurdle/hurdle/hurdle.glb" id="2"]

[sub_resource type="PhysicsMaterial" id="1"]
friction = 0.0

[sub_resource type="BoxShape3D" id="2"]
size = Vector3(1, 0.55, 0.05)

[sub_resource type="BoxMesh" id="3"]
size = Vector3(2, 0.015, 0.1)

[node name="Hurdle" type="RigidBody3D" groups=["hurdles"]]
collision_layer = 2
collision_mask = 0
mass = 6687.24
physics_material_override = SubResource("1")
gravity_scale = 0.0
script = ExtResource("1")

[node name="Shape3D" type="CollisionShape3D" parent="."]
transform = Transform3D(1, 0, 0, 0, 1, 0, 0, 0, 1, 0, 0.52, 0)
shape = SubResource("2")

[node name="MeshInstance3D" type="MeshInstance3D" parent="."]
transform = Transform3D(1, 0, 0, 0, 1, 0, 0, 0, 1, 0, 0.1, -1.5)
visible = false
mesh = SubResource("3")

[node name="hurdle" parent="." instance=ExtResource("2")]
