[gd_resource type="StandardMaterial3D" load_steps=2 format=3 uid="uid://d2dxsgypveslt"]

[ext_resource type="Texture2D" uid="uid://dacb222mbsmeg" path="res://common/scenes/board_logic/node/material/tile_nolok_col.jpg" id="1"]

[resource]
diffuse_mode = 3
specular_mode = 1
albedo_texture = ExtResource("1")
metallic_specular = 0.0
