[gd_scene load_steps=4 format=3 uid="uid://bmdaus4pimoxb"]

[ext_resource type="Script" path="res://common/scenes/countdown/countdown.gd" id="1"]

[sub_resource type="Animation" id="1"]
resource_name = "fadeout"
length = 0.5
tracks/0/type = "value"
tracks/0/imported = false
tracks/0/enabled = true
tracks/0/path = NodePath("Label:modulate")
tracks/0/interp = 1
tracks/0/loop_wrap = true
tracks/0/keys = {
"times": PackedFloat32Array(0, 0.5),
"transitions": PackedFloat32Array(1, 1),
"update": 0,
"values": [Color(1, 1, 1, 1), Color(1, 1, 1, 0)]
}

[sub_resource type="AnimationLibrary" id="AnimationLibrary_oyk20"]
_data = {
"fadeout": SubResource("1")
}

[node name="Countdown" type="Control"]
process_mode = 3
layout_mode = 3
anchors_preset = 15
anchor_right = 1.0
anchor_bottom = 1.0
grow_horizontal = 2
grow_vertical = 2
script = ExtResource("1")

[node name="Label" type="Label" parent="."]
layout_mode = 0
anchor_right = 1.0
anchor_bottom = 1.0
theme_override_colors/font_shadow_color = Color(0, 0, 0, 1)
theme_override_font_sizes/font_size = 72
text = "Go!"
horizontal_alignment = 1
vertical_alignment = 1

[node name="AnimationPlayer" type="AnimationPlayer" parent="."]
libraries = {
"": SubResource("AnimationLibrary_oyk20")
}
