[gd_scene load_steps=4 format=3 uid="uid://cpv20xkqx2dpy"]

[ext_resource type="Script" path="res://common/scenes/board_logic/node/arrow/arrow.gd" id="1"]
[ext_resource type="Texture2D" uid="uid://dog8be8sj1ye1" path="res://common/scenes/board_logic/node/arrow/arrow.png" id="2"]

[sub_resource type="BoxShape3D" id="1"]
size = Vector3(0.724517, 0.1, 1.03621)

[node name="Arrow" type="Area3D" groups=["arrows"]]
input_capture_on_drag = true
monitoring = false
monitorable = false
script = ExtResource("1")

[node name="Sprite2D" type="Sprite3D" parent="."]
transform = Transform3D(1, 0, 0, 0, -4.37114e-08, 1, 0, -1, -4.37114e-08, 0, 0.2, 0)
offset = Vector2(0, -330)
flip_v = true
modulate = Color(1, 0.5, 0.5, 0.3)
pixel_size = 0.005
double_sided = false
texture = ExtResource("2")

[node name="Shape3D" type="CollisionShape3D" parent="."]
transform = Transform3D(1, 0, 0, 0, 1, 0, 0, 0, 1, 0, 0.140164, 1.60022)
shape = SubResource("1")

[connection signal="input_event" from="." to="." method="_on_Arrow_input_event"]
[connection signal="mouse_entered" from="." to="." method="_on_Arrow_mouse_entered"]
